otsu_version/tb/tr.vcd
$date
     Jun 28, 2016       22:04:31
$end

$version
              SystemC 2.3.0-ASI --- Feb  3 2015 15:12:21
$end

$timescale
     1 ps
$end

$scope module SystemC $end
$var wire    1  aaa  int_o       $end
$var wire    1  aab  ack_o       $end
$var wire   32  aac  dat_o [31:0]  $end
$var wire    4  aad  sel_i [3:0]  $end
$var wire    1  aae  cyc_i       $end
$var wire    1  aaf  stb_i       $end
$var wire    1  aag  we_i       $end
$var wire   32  aah  dat_i [31:0]  $end
$var wire   32  aai  adr_i [31:0]  $end
$var wire    1  aaj  reset       $end
$var wire    1  aak  clk       $end
$upscope $end
$enddefinitions  $end

$comment
All initial values are dumped below at time 0 sec = 0 timescale units.
$end

$dumpvars
0aaa
0aab
b0 aac
b0 aad
0aae
0aaf
0aag
b0 aah
b0 aai
1aaj
1aak
$end

#5000
0aak

#10000
1aak

#15000
0aak

#20000
0aaj
1aak

#25000
0aak

#30000
b1111 aad
1aae
1aaf
1aag
b100000 aai
1aak

#35000
0aak

#40000
1aab
1aak

#45000
0aak

#50000
0aab
0aae
0aaf
0aag
1aak

#55000
0aak

#60000
1aak

#65000
0aak

#70000
1aak

#75000
0aak

#80000
1aak

#85000
0aak

#90000
1aae
1aaf
1aag
b1000000100000001100000100 aah
b1000 aai
1aak

#95000
0aak

#100000
1aab
1aak

#105000
0aak

#110000
0aab
0aae
0aaf
0aag
1aak

#115000
0aak

#120000
1aak

#125000
0aak

#130000
1aak

#135000
0aak

#140000
1aak

#145000
0aak

#150000
1aae
1aaf
1aag
b1000000000001000000010001000000 aah
b11000 aai
1aak

#155000
0aak

#160000
1aab
1aak

#165000
0aak

#170000
0aab
0aae
0aaf
0aag
1aak

#175000
0aak

#180000
1aak

#185000
0aak

#190000
1aak

#195000
0aak

#200000
1aak

#205000
0aak

#210000
1aae
1aaf
1aag
b1000100000001000000000001 aah
b1100 aai
1aak

#215000
0aak

#220000
1aab
1aak

#225000
0aak

#230000
0aab
0aae
0aaf
0aag
1aak

#235000
0aak

#240000
1aak

#245000
0aak

#250000
1aak

#255000
0aak

#260000
1aak

#265000
0aak

#270000
1aae
1aaf
1aag
b110011000000000000000000110011 aah
b10100 aai
1aak

#275000
0aak

#280000
1aab
1aak

#285000
0aak

#290000
0aab
0aae
0aaf
0aag
1aak

#295000
0aak

#300000
1aak

#305000
0aak

#310000
1aak

#315000
0aak

#320000
1aak

#325000
0aak

#330000
1aae
1aaf
1aag
b1000100010001000000000 aah
b10000 aai
1aak

#335000
0aak

#340000
1aab
1aak

#345000
0aak

#350000
0aab
0aae
0aaf
0aag
1aak

#355000
0aak

#360000
1aak

#365000
0aak

#370000
1aak

#375000
0aak

#380000
1aak

#385000
0aak

#390000
1aae
1aaf
1aag
b1 aah
b0 aai
1aak

#395000
0aak

#400000
1aab
1aak

#405000
0aak

#410000
0aab
0aae
0aaf
0aag
1aak

